Project List: Crime in the Time of Covid
…
 pivot_data <- corr_data %>% pivot_longer(!c(`COVID-19 Deaths`,`COVID 19 Deaths Per Capita`),
                                          
    names_to = "Factor", 
    values_to = "Percent_Change",
  )

 pivot_data

# A tibble: 200 x 4
   `COVID-19 Deaths` `COVID 19 Deaths Pe~ Factor        Percent_Change
               <dbl>                <dbl> <chr>                  <dbl>
 1              6706                133.  Property Cri~        -0.638 
 2              6706                133.  Aggravated A~         6.09  
 3              6706                133.  Murder % Cha~         1     
 4              6706                133.  Unemployment~         0.492 
 5               254                 34.6 Property Cri~        -0.203 
 6               254                 34.6 Aggravated A~         0.0197
 7               254                 34.6 Murder % Cha~        -0.283 
 8               254                 34.6 Unemployment~         0.308 
 9              9321                130.  Property Cri~        -0.0922
10              9321                130.  Aggravated A~         0.0181
# ... with 190 more rows
…
  pivot_data

# A tibble: 200 x 4
   `COVID-19 Deaths` `COVID 19 Deaths Pe~ Factor        Percent_Change
               <dbl>                <dbl> <chr>                  <dbl>
 1              6706                133.  Property Cri~        -0.638 
 2              6706                133.  Aggravated A~         6.09  
 3              6706                133.  Murder % Cha~         1     
 4              6706                133.  Unemployment~         0.492 
 5               254                 34.6 Property Cri~        -0.203 
 6               254                 34.6 Aggravated A~         0.0197
 7               254                 34.6 Murder % Cha~        -0.283 
 8               254                 34.6 Unemployment~         0.308 
 9              9321                130.  Property Cri~        -0.0922
10              9321                130.  Aggravated A~         0.0181
# ... with 190 more rows
…
 pivot_data 

# A tibble: 200 x 4
   `COVID-19 Deaths` `COVID 19 Deaths Pe~ Factor        Percent_Change
               <dbl>                <dbl> <chr>                  <dbl>
 1              6706                133.  Property Cri~        -0.638 
 2              6706                133.  Aggravated A~         6.09  
 3              6706                133.  Murder % Cha~         1     
 4              6706                133.  Unemployment~         0.492 
 5               254                 34.6 Property Cri~        -0.203 
 6               254                 34.6 Aggravated A~         0.0197
 7               254                 34.6 Murder % Cha~        -0.283 
 8               254                 34.6 Unemployment~         0.308 
 9              9321                130.  Property Cri~        -0.0922
10              9321                130.  Aggravated A~         0.0181
# ... with 190 more rows
…
